{
  "name": "Companies",
  "options": {
    "idInjection": false,
    "mysql": {
      "schema": "attestation",
      "table": "companies"
    },
    "relations": {}
  },
  "properties": {
    "сompanyname": {
      "type": "String",
      "required": true,
      "length": 16777215,
      "precision": null,
      "scale": null,
      "mysql": {
        "columnName": "сompanyname",
        "dataType": "mediumtext",
        "dataLength": 16777215,
        "dataPrecision": null,
        "dataScale": null,
        "nullable": "N"
      }
    },
    "hashpassword": {
      "type": "String",
      "required": true,
      "length": 16777215,
      "precision": null,
      "scale": null,
      "mysql": {
        "columnName": "hashpassword",
        "dataType": "mediumtext",
        "dataLength": 16777215,
        "dataPrecision": null,
        "dataScale": null,
        "nullable": "N"
      }
    },
    "specification": {
      "type": "String",
      "required": false,
      "length": 16777215,
      "precision": null,
      "scale": null,
      "mysql": {
        "columnName": "specification",
        "dataType": "mediumtext",
        "dataLength": 16777215,
        "dataPrecision": null,
        "dataScale": null,
        "nullable": "Y"
      }
    },
    "contacts": {
      "type": "String",
      "required": false,
      "length": 16777215,
      "precision": null,
      "scale": null,
      "mysql": {
        "columnName": "contacts",
        "dataType": "mediumtext",
        "dataLength": 16777215,
        "dataPrecision": null,
        "dataScale": null,
        "nullable": "Y"
      }
    }
  }
}
