{
  "name": "Course",
  "options": {
    "idInjection": false,
    "mysql": {
      "schema": "attestation",
      "table": "course"
    },
    "relations": {
      "typeofcertificate": {
        "model": "Typeofcertificate",
        "type": "belongsTo",
        "foreignKey": "idTypeofcertificate"
      }
    }
  },
  "properties": {
    "specification": {
      "type": "String",
      "required": false,
      "length": 16777215,
      "precision": null,
      "scale": null,
      "mysql": {
        "columnName": "specification",
        "dataType": "mediumtext",
        "dataLength": 16777215,
        "dataPrecision": null,
        "dataScale": null,
        "nullable": "Y"
      }
    },
    "idTypeofcertificate": {
      "type": "Number",
      "required": false,
      "length": null,
      "precision": 10,
      "scale": 0,
      "mysql": {
        "columnName": "id_typeofcertificate",
        "dataType": "int",
        "dataLength": null,
        "dataPrecision": 10,
        "dataScale": 0,
        "nullable": "Y"
      }
    }
  }
}
